###################################
#   H. Shanker Rao                #
#   KUID 2495689                  #
#   Multiple scanning approach    #
###################################

Compiling and linking instructions:

* cd to the project directory
(1) type 'make' to execute program
    program will prompt you for desired data files:
	(2) input file name
	(3) number of scans
	(4) whether to save list of cutpoints
	(5) output file name - discretization
	(6) if response of (4) is 'y', provide name for cutpoints file
	(7) output file name - safe merging
	(8) output file name - proper merging
