###################################
#   H. Shanker Rao                #
#   KUID 2495689                  #
#   Dominant attribute approach   #
###################################

Compiling and linking instructions:

* cd to the project directory
(1) type 'make' to execute program
    program will prompt you for desired data files:
	(2) input file name
	(3) whether to save list of cutpoints
	(4) output file name - discretization
	(5) if response of (3) is 'y', provide name for cutpoints file
	(6) output file name - safe merging
	(7) output file name - proper merging
