################################################
#
#		H. Shanker Rao
#		KU ID 2495689
#		EECS 837 Programming project
#		Due November 29, 2011
#
################################################

To run the program, type at terminal:
	perl mlem2.pl
On-screen instructions will prompt user for name of input and output file.
The script is tested on example dataset - car.d
