###################################
#   H. Shanker Rao                #
#   KUID 2495689                  #
#   EECS 839 Mining special data  #
#   Programming project           #
###################################

Compiling and linking instructions:

* cd to the project directory
* type 'make' to execute program
* program will prompt you for desired data files:
	- input file name
	- alpha
	- whether to save elementary sets
	- output file name
	- if response of (3) is 'y', provide name for new file


